Output: NC Drill Files
Type  : NC Drill
From  : Project [can-node.PrjPcb]
   Generated File[can-node-RoundHoles-Plated.TXT]
   Generated File[can-node-SlotHoles-Plated.TXT]
   Generated File[can-node.LDP]
   Generated File[can-node.DRR]


Files Generated   : 4
Documents Printed : 0

Finished Output Generation At 1:21:18 AM On 3/02/2015
