Field=Comment~String~Comment~125|Field=Description~String~Description~279|Field=Designator~String~Designator~87|Field=Footprint~String~Footprint~87|Field=LibRef~String~LibRef~87|Field=Quantity~Integer~Quantity~85|ReportField=Currency~<none>|ReportField=ProductionQuantity~1|ReportField=ProjectFileName~can-node.PrjPcb|ReportField=ProjectFullPath~S:\sunswift\sunswift.can-node\hardware\can-node.PrjPcb|ReportField=Title~Bill of Materials For PCB Document [can-node.PcbDoc]|ReportField=TotalQuantity~77|ReportField=ReportTime~10:11:56 AM|ReportField=ReportDate~7/10/2014|ReportField=ReportDateTime~7/10/2014 10:11:56 AM|ReportField=OutputName~Bill of Materials|ReportField=OutputType~BOM_PartType|ReportField=GeneratorName~BOM|ReportField=GeneratorDescription~Bill of Materials|ReportField=VariantName~None|ReportField=DataSourceFileName~can-node.PcbDoc|ReportField=DataSourceFullPath~S:\sunswift\sunswift.can-node\hardware\pcb\can-node.PcbDoc
0R|Resistor|0R|0603|RES1|2
22n|Capacitor|C1, C3|0603|Cap|2
10uF|Capacitor|C2|1206|Cap|1
100uF|Capacitor|C4|1206|Cap|1
100nF|Capacitor|C10, C11, C15, C30|0603|CAP|4
1uF|Capacitor|C12, C13|0805|CAP|2
18pF|Capacitor|C14, C17|0603|CAP|2
10nF|Capacitor|C16|0603|CAP|1
100n|Capacitor (Semiconductor SIM Model), Capacitor, Capacitor, Capacitor|C31, C40, C42, C43|0603|Cap Semi, CAP, CAP, CAP|4
10uF|Capacitor (Semiconductor SIM Model)|C32|0805|Cap Semi|1
10u|Capacitor|C41|0805|CAP|1
1882-2781|Three level LED|D1|LED_TRILEVEL|LED-TRILEVEL|1
12V Transient Suppressor|Diode|D30|SMA|DIODE|1
MBRS130|Schottky Diode|D40|SMB|D SCHOTTKY|1
LED||D41|0805LED|LED|1
MOSFET-N|N-Channel MOSFET|DNC|SOT23-3|MOSFET-N|2
125mA/3A|Fuse|F30|LITTELFUSE-154|FUSE2|1
500mA|Fuse|F40|1812|FUSE2|1
HOLE|Hole|H1, H2, H3, H4, H5, H6, H7|M2.5|HOLE|7
LPC SWD Connector|LPC SWD Connector|J10|IDC8|LPCLink_Connector|1
CON5-S|Connector, 2 pin, with shield @ S|J30|M12_5P|CON5-S|1
USB_MINIB|USB Mini B Connector|J40|USBMICRO_AB|USB_miniB_SMT|1
FERRITE|Inductor|L40|0805|INDUCTOR|1
Header 12X2A|Header, 12-Pin, Dual row|P10, P11|HDR2X12_CEN|Header 12X2A|2
3v3|Header, 2-Pin|P40|HDR1X2|Header 2|1
5v|Header, 2-Pin|P41|HDR1X2|Header 2|1
100K|Resistor|R1|0603|RES1|1
20K|Resistor|R2|0603|RES1|1
1K|Resistor, Resistor, Resistor, Semiconductor Resistor|R3, R4, R5, R11|0603|RES1, RES1, RES1, Res Semi|4
33K|Resistor|R6|0603|RES1|1
10K|Resistor, Semiconductor Resistor, Semiconductor Resistor, Resistor|R7, R10, R13, R15|0603|RES1, Res Semi, Res Semi, RES1|4
61k9|R_on|R8|0603|RES1|1
3k32|3.32k|R9|0603|RES1|1
1k07|1.07k|R12|0603|RES1|1
DNC|Semiconductor Resistor|R14|0603|Res Semi|1
4.7k|Semiconductor Resistor|R16, R17|0603|Res Semi|2
P8_H|Semiconductor Resistor|R30|0603|Res Semi|1
P8_L|Semiconductor Resistor|R32|0603|Res Semi|1
P5_L|Semiconductor Resistor|R34|0603|Res Semi|1
P5_H|Semiconductor Resistor|R35|0603|Res Semi|1
6R8|Semiconductor Resistor|R36, R37|0603|Res Semi|2
SHNT|Resistor|R38|0805|Res3|1
330R|Resistor|R40|0603|RES1|1
LMZ12001|Switching Regulator|U1|LMZ12001|LMZ12001|1
LPC11C14|NXP LPC11C14 Microcontroller|U10|QFP48-long|LPC11C14_Full|1
24AAXX|I2C EEPROM for SOT23-5 package|U11|SOT23-5|24AAXX|1
XC61CN2002MR|SOT23 reset generator|U12|SOT23-3|XC61F|1
SN65HVD235. pull Rs Hi for standby|3.3V CAN XCVR W/STANDBY|U30|SO8|SN65HVD235|1
INA214|Current Shunt Monitor|U31|SC70-6|INA214|1
FT232R||U40|SSOP28w|FT232R|1
12 MHz|Crystal|Y10|HC49/4H|CRYSTAL|1
